<?xml version="1.0" encoding="UTF-8" standalone="no"?>
<!-- Created with Inkscape (http://www.inkscape.org/) -->

<svg
   xmlns:osb="http://www.openswatchbook.org/uri/2009/osb"
   xmlns:dc="http://purl.org/dc/elements/1.1/"
   xmlns:cc="http://creativecommons.org/ns#"
   xmlns:rdf="http://www.w3.org/1999/02/22-rdf-syntax-ns#"
   xmlns:svg="http://www.w3.org/2000/svg"
   xmlns="http://www.w3.org/2000/svg"
   xmlns:xlink="http://www.w3.org/1999/xlink"
   xmlns:sodipodi="http://sodipodi.sourceforge.net/DTD/sodipodi-0.dtd"
   xmlns:inkscape="http://www.inkscape.org/namespaces/inkscape"
   width="105.60635mm"
   height="30.145563mm"
   viewBox="0 0 374.19568 106.81498"
   id="svg2"
   version="1.1"
   inkscape:version="0.91 r13725"
   sodipodi:docname="ticone_logo.svg"
   inkscape:export-filename="/home/wiwiec/btsync_de/PhD/ticone/ticone_logo.png"
   inkscape:export-xdpi="239.80757"
   inkscape:export-ydpi="239.80757">
  <defs
     id="defs4">
    <linearGradient
       inkscape:collect="always"
       id="linearGradient8395">
      <stop
         style="stop-color:#000000;stop-opacity:1;"
         offset="0"
         id="stop8397" />
      <stop
         style="stop-color:#000000;stop-opacity:0;"
         offset="1"
         id="stop8399" />
    </linearGradient>
    <linearGradient
       inkscape:collect="always"
       id="linearGradient8243">
      <stop
         style="stop-color:#000000;stop-opacity:1;"
         offset="0"
         id="stop8245" />
      <stop
         style="stop-color:#000000;stop-opacity:0;"
         offset="1"
         id="stop8247" />
    </linearGradient>
    <linearGradient
       inkscape:collect="always"
       id="linearGradient8235">
      <stop
         style="stop-color:#000000;stop-opacity:1;"
         offset="0"
         id="stop8237" />
      <stop
         style="stop-color:#000000;stop-opacity:0;"
         offset="1"
         id="stop8239" />
    </linearGradient>
    <linearGradient
       inkscape:collect="always"
       id="linearGradient8219">
      <stop
         style="stop-color:#000000;stop-opacity:1;"
         offset="0"
         id="stop8221" />
      <stop
         style="stop-color:#000000;stop-opacity:0;"
         offset="1"
         id="stop8223" />
    </linearGradient>
    <linearGradient
       id="linearGradient6592"
       osb:paint="solid">
      <stop
         style="stop-color:#82caff;stop-opacity:1;"
         offset="0"
         id="stop6594" />
    </linearGradient>
    <linearGradient
       inkscape:collect="always"
       id="linearGradient6584"
       osb:paint="gradient">
      <stop
         style="stop-color:#82caff;stop-opacity:1;"
         offset="0"
         id="stop6586" />
      <stop
         style="stop-color:#82caff;stop-opacity:0;"
         offset="1"
         id="stop6588" />
    </linearGradient>
    <linearGradient
       inkscape:collect="always"
       id="linearGradient5130"
       osb:paint="gradient">
      <stop
         style="stop-color:#82caff;stop-opacity:1;"
         offset="0"
         id="stop5132" />
      <stop
         style="stop-color:#82caff;stop-opacity:0;"
         offset="1"
         id="stop5134" />
    </linearGradient>
    <marker
       inkscape:stockid="DotL"
       orient="auto"
       refY="0"
       refX="0"
       id="DotL"
       style="overflow:visible"
       inkscape:isstock="true">
      <path
         id="path4499"
         d="m -2.5,-1 c 0,2.76 -2.24,5 -5,5 -2.76,0 -5,-2.24 -5,-5 0,-2.76 2.24,-5 5,-5 2.76,0 5,2.24 5,5 z"
         style="fill:#af8011;fill-opacity:1;fill-rule:evenodd;stroke:#e9b631;stroke-width:1pt;stroke-opacity:1"
         transform="matrix(0.8,0,0,0.8,5.92,0.8)"
         inkscape:connector-curvature="0" />
    </marker>
    <marker
       inkscape:stockid="Arrow1Lstart"
       orient="auto"
       refY="0"
       refX="0"
       id="Arrow1Lstart"
       style="overflow:visible"
       inkscape:isstock="true">
      <path
         id="path4438"
         d="M 0,0 5,-5 -12.5,0 5,5 0,0 Z"
         style="fill:#d4a017;fill-opacity:1;fill-rule:evenodd;stroke:#d4a017;stroke-width:1pt;stroke-opacity:1"
         transform="matrix(0.8,0,0,0.8,10,0)"
         inkscape:connector-curvature="0" />
    </marker>
    <linearGradient
       inkscape:collect="always"
       id="linearGradient4181">
      <stop
         style="stop-color:#000000;stop-opacity:1;"
         offset="0"
         id="stop4183" />
      <stop
         style="stop-color:#000000;stop-opacity:0;"
         offset="1"
         id="stop4185" />
    </linearGradient>
    <linearGradient
       inkscape:collect="always"
       xlink:href="#linearGradient4181"
       id="linearGradient4189"
       x1="60.181423"
       y1="113.04522"
       x2="418.87946"
       y2="113.04522"
       gradientUnits="userSpaceOnUse" />
    <linearGradient
       inkscape:collect="always"
       xlink:href="#linearGradient8219"
       id="linearGradient8225"
       x1="138.64975"
       y1="98.600739"
       x2="136.04199"
       y2="32.435745"
       gradientUnits="userSpaceOnUse"
       gradientTransform="translate(22,0)" />
    <linearGradient
       inkscape:collect="always"
       xlink:href="#linearGradient8235"
       id="linearGradient8241"
       x1="191.65752"
       y1="101.70699"
       x2="191.72487"
       y2="32.511536"
       gradientUnits="userSpaceOnUse"
       gradientTransform="translate(14,0)" />
    <linearGradient
       inkscape:collect="always"
       xlink:href="#linearGradient8243"
       id="linearGradient8249"
       x1="258.92276"
       y1="102.53474"
       x2="257.69324"
       y2="27.783457"
       gradientUnits="userSpaceOnUse"
       gradientTransform="translate(8,0)" />
    <linearGradient
       inkscape:collect="always"
       xlink:href="#linearGradient4181"
       id="linearGradient8251"
       gradientUnits="userSpaceOnUse"
       x1="60.181423"
       y1="113.04522"
       x2="418.87946"
       y2="113.04522" />
    <linearGradient
       inkscape:collect="always"
       xlink:href="#linearGradient8395"
       id="linearGradient8401"
       x1="128.2505"
       y1="100.58581"
       x2="128.78543"
       y2="37.008224"
       gradientUnits="userSpaceOnUse" />
  </defs>
  <sodipodi:namedview
     id="base"
     pagecolor="#ffffff"
     bordercolor="#666666"
     borderopacity="1.0"
     inkscape:pageopacity="1"
     inkscape:pageshadow="2"
     inkscape:zoom="1.979899"
     inkscape:cx="177.86929"
     inkscape:cy="34.09981"
     inkscape:document-units="px"
     inkscape:current-layer="layer8"
     showgrid="false"
     inkscape:window-width="1600"
     inkscape:window-height="854"
     inkscape:window-x="0"
     inkscape:window-y="24"
     inkscape:window-maximized="1"
     inkscape:object-nodes="false"
     inkscape:snap-bbox="false"
     inkscape:bbox-paths="false"
     inkscape:bbox-nodes="false"
     inkscape:snap-bbox-edge-midpoints="false"
     inkscape:snap-others="false"
     showguides="false"
     fit-margin-top="5"
     fit-margin-left="5"
     fit-margin-right="5"
     fit-margin-bottom="5" />
  <metadata
     id="metadata7">
    <rdf:RDF>
      <cc:Work
         rdf:about="">
        <dc:format>image/svg+xml</dc:format>
        <dc:type
           rdf:resource="http://purl.org/dc/dcmitype/StillImage" />
        <dc:title></dc:title>
      </cc:Work>
    </rdf:RDF>
  </metadata>
  <g
     inkscape:label="Layer 1"
     inkscape:groupmode="layer"
     id="layer1"
     style="display:none"
     sodipodi:insensitive="true"
     transform="translate(-74.790745,-57.596772)">
    <g
       style="font-style:normal;font-weight:normal;font-size:40px;line-height:125%;font-family:Sans;letter-spacing:0px;word-spacing:0px;fill:#000000;fill-opacity:1;stroke:url(#linearGradient4189);stroke-width:0.1;stroke-linecap:butt;stroke-linejoin:miter;stroke-miterlimit:4;stroke-dasharray:none;stroke-opacity:1"
       id="text4158">
      <path
         d="m 111.06893,84.607724 0,11.6375 -18.287505,0 0,48.999996 -13.65,0 0,-48.999996 -18.2875,0 0,-11.6375 50.225005,0 z"
         style="font-style:normal;font-variant:normal;font-weight:bold;font-stretch:normal;font-size:87.5px;font-family:Ubuntu;-inkscape-font-specification:'Ubuntu Bold';letter-spacing:13px;fill:#000000;fill-opacity:1;stroke:none;stroke-width:0.1;stroke-miterlimit:4;stroke-dasharray:none;stroke-opacity:1"
         id="path4372"
         inkscape:connector-curvature="0" />
      <path
         d="m 144.91853,145.24522 -13.0375,0 0,-46.024996 13.0375,0 0,46.024996 z m 1.225,-59.324996 q 0,3.5875 -2.3625,5.6875 -2.275,2.0125 -5.425,2.0125 -3.15,0 -5.5125,-2.0125 -2.275,-2.1 -2.275,-5.6875 0,-3.5875 2.275,-5.6 2.3625,-2.1 5.5125,-2.1 3.15,0 5.425,2.1 2.3625,2.0125 2.3625,5.6 z"
         style="font-style:normal;font-variant:normal;font-weight:bold;font-stretch:normal;font-size:87.5px;font-family:Ubuntu;-inkscape-font-specification:'Ubuntu Bold';letter-spacing:13px;fill:#000000;fill-opacity:1;stroke:none;stroke-width:0.1;stroke-miterlimit:4;stroke-dasharray:none;stroke-opacity:1"
         id="path4374"
         inkscape:connector-curvature="0" />
      <path
         d="m 198.699,146.47022 q -14.7875,0 -22.575,-8.225 -7.7,-8.225 -7.7,-23.3625 0,-7.525 2.3625,-13.3875 2.3625,-5.949996 6.475,-9.974996 4.1125,-4.1125 9.8,-6.2125 5.6875,-2.1 12.3375,-2.1 3.85,0 7,0.6125 3.15,0.525 5.5125,1.3125 2.3625,0.7 3.9375,1.4875 1.575,0.7875 2.275,1.225 l -3.9375,11.025 q -2.8,-1.4875 -6.5625,-2.5375 -3.675,-1.05 -8.4,-1.05 -3.15,0 -6.2125,1.05 -2.975,1.05 -5.3375,3.4125 -2.275,2.274996 -3.675,5.949996 -1.4,3.675 -1.4,8.925 0,4.2 0.875,7.875 0.9625,3.5875 2.975,6.2125 2.1,2.625 5.425,4.2 3.325,1.4875 8.05,1.4875 2.975,0 5.3375,-0.35 2.3625,-0.35 4.2,-0.7875 1.8375,-0.525 3.2375,-1.1375 1.4,-0.6125 2.5375,-1.1375 l 3.7625,10.9375 q -2.8875,1.75 -8.1375,3.15 -5.25,1.4 -12.1625,1.4 z"
         style="font-style:normal;font-variant:normal;font-weight:bold;font-stretch:normal;font-size:87.5px;font-family:Ubuntu;-inkscape-font-specification:'Ubuntu Bold';letter-spacing:13px;fill:#000000;fill-opacity:1;stroke:none;stroke-width:0.1;stroke-miterlimit:4;stroke-dasharray:none;stroke-opacity:1"
         id="path4376"
         inkscape:connector-curvature="0" />
      <path
         d="m 281.93689,122.14522 q 0,5.425 -1.575,9.975 -1.575,4.4625 -4.55,7.7 -2.975,3.15 -7.175,4.9 -4.1125,1.75 -9.275,1.75 -5.075,0 -9.275,-1.75 -4.1125,-1.75 -7.0875,-4.9 -2.975,-3.2375 -4.6375,-7.7 -1.6625,-4.55 -1.6625,-9.975 0,-5.425 1.6625,-9.8875 1.75,-4.4625 4.725,-7.6125 3.0625,-3.15 7.175,-4.899996 4.2,-1.75 9.1,-1.75 4.9875,0 9.1,1.75 4.2,1.749996 7.175,4.899996 2.975,3.15 4.6375,7.6125 1.6625,4.4625 1.6625,9.8875 z m -13.3,0 q 0,-6.0375 -2.45,-9.45 -2.3625,-3.5 -6.825,-3.5 -4.4625,0 -6.9125,3.5 -2.45,3.4125 -2.45,9.45 0,6.0375 2.45,9.625 2.45,3.5 6.9125,3.5 4.4625,0 6.825,-3.5 2.45,-3.5875 2.45,-9.625 z"
         style="font-style:normal;font-variant:normal;font-weight:bold;font-stretch:normal;font-size:87.5px;font-family:Ubuntu;-inkscape-font-specification:'Ubuntu Bold';letter-spacing:13px;fill:#000000;fill-opacity:1;stroke:none;stroke-width:0.1;stroke-miterlimit:4;stroke-dasharray:none;stroke-opacity:1"
         id="path4378"
         inkscape:connector-curvature="0" />
    </g>
  </g>
  <g
     style="display:inline"
     id="g4365"
     inkscape:groupmode="layer"
     inkscape:label="Layer 1 copy"
     transform="translate(-74.790745,-57.596772)">
    <g
       style="font-style:normal;font-weight:normal;font-size:40px;line-height:125%;font-family:Sans;letter-spacing:0px;word-spacing:0px;fill:#000000;fill-opacity:1;stroke:url(#linearGradient8251);stroke-width:0.1;stroke-linecap:butt;stroke-linejoin:miter;stroke-miterlimit:4;stroke-dasharray:none;stroke-opacity:1"
       id="text4367"
       transform="translate(10,0)">
      <path
         style="font-style:normal;font-variant:normal;font-weight:bold;font-stretch:normal;font-size:87.5px;font-family:Ubuntu;-inkscape-font-specification:'Ubuntu Bold';letter-spacing:13px;fill:url(#linearGradient8401);fill-opacity:1;stroke:none;stroke-width:0.1;stroke-miterlimit:4;stroke-dasharray:none;stroke-opacity:1"
         d="m 106.11757,77.758357 -12.719132,2.747502 0.978515,13.507813 21.124997,-1.410156 1.21094,4.951172 -0.46094,0.458984 c 0.28004,18.040328 1.38481,-3.61e-4 5.70117,42.767578 l 4.54297,1.96484 4,-43.414059 0.48438,0.04883 1.75334,-6.664548 16.29828,1.524481 6.55022,0.429405 1.06027,-13.928009 -12.16143,-2.722647 -7.654,2.96285 -4.54199,2.628937 -3.97815,1.05682 -2.85076,0.0025 c -0.88844,0.05225 -5.01538,-1.471627 -5.50683,-0.989153 l -6.52589,-3.132358 z"
         transform="translate(-10,0)"
         id="path4390"
         inkscape:connector-curvature="0"
         sodipodi:nodetypes="cccccccccccccccccccccc" />
      <path
         d="m 166.91853,145.24522 -13.0375,0 0,-46.024996 13.0375,0 c -0.57141,16.157966 -5.36594,38.348956 0,46.024996 z m 1.225,-59.324996 c 0,2.391667 -0.7875,4.2875 -2.3625,5.6875 -1.51667,1.341667 -3.325,2.0125 -5.425,2.0125 -2.1,0 -3.9375,-0.670833 -5.5125,-2.0125 -1.51667,-1.4 -2.275,-3.295833 -2.275,-5.6875 0,-2.391667 0.75833,-4.258333 2.275,-5.6 1.575,-1.4 3.4125,-2.1 5.5125,-2.1 2.1,0 3.90833,0.7 5.425,2.1 1.575,1.341667 2.3625,3.208333 2.3625,5.6 z"
         style="font-style:normal;font-variant:normal;font-weight:bold;font-stretch:normal;font-size:87.5px;font-family:Ubuntu;-inkscape-font-specification:'Ubuntu Bold';letter-spacing:13px;fill:url(#linearGradient8225);fill-opacity:1;stroke:none;stroke-width:0.1;stroke-miterlimit:4;stroke-dasharray:none;stroke-opacity:1"
         id="path4392"
         inkscape:connector-curvature="0"
         sodipodi:nodetypes="cccccscscscscs" />
      <path
         d="m 212.699,146.47022 q -14.7875,0 -22.575,-8.225 -7.7,-8.225 -7.7,-23.3625 0,-7.525 2.3625,-13.3875 2.3625,-5.949996 6.475,-9.974996 4.1125,-4.1125 9.8,-6.2125 5.6875,-2.1 12.3375,-2.1 3.85,0 7,0.6125 3.15,0.525 5.5125,1.3125 2.3625,0.7 3.9375,1.4875 1.575,0.7875 2.275,1.225 l -3.9375,11.025 q -2.8,-1.4875 -6.5625,-2.5375 -3.675,-1.05 -8.4,-1.05 -3.15,0 -6.2125,1.05 -2.975,1.05 -5.3375,3.4125 -2.275,2.274996 -3.675,5.949996 -1.4,3.675 -1.4,8.925 0,4.2 0.875,7.875 0.9625,3.5875 2.975,6.2125 2.1,2.625 5.425,4.2 3.325,1.4875 8.05,1.4875 2.975,0 5.3375,-0.35 2.3625,-0.35 4.2,-0.7875 1.8375,-0.525 3.2375,-1.1375 1.4,-0.6125 2.5375,-1.1375 l 3.7625,10.9375 q -2.8875,1.75 -8.1375,3.15 -5.25,1.4 -12.1625,1.4 z"
         style="font-style:normal;font-variant:normal;font-weight:bold;font-stretch:normal;font-size:87.5px;font-family:Ubuntu;-inkscape-font-specification:'Ubuntu Bold';letter-spacing:13px;fill:url(#linearGradient8241);fill-opacity:1;stroke:none;stroke-width:0.1;stroke-miterlimit:4;stroke-dasharray:none;stroke-opacity:1"
         id="path4394"
         inkscape:connector-curvature="0" />
      <path
         d="m 289.93689,122.14522 q 0,5.425 -1.575,9.975 -1.575,4.4625 -4.55,7.7 -2.975,3.15 -7.175,4.9 -4.1125,1.75 -9.275,1.75 -5.075,0 -9.275,-1.75 -4.1125,-1.75 -7.0875,-4.9 -2.975,-3.2375 -4.6375,-7.7 -1.6625,-4.55 -1.6625,-9.975 0,-5.425 1.6625,-9.8875 1.75,-4.4625 4.725,-7.6125 3.0625,-3.15 7.175,-4.899996 4.2,-1.75 9.1,-1.75 4.9875,0 9.1,1.75 4.2,1.749996 7.175,4.899996 2.975,3.15 4.6375,7.6125 1.6625,4.4625 1.6625,9.8875 z m -13.3,0 q 0,-6.0375 -2.45,-9.45 -2.3625,-3.5 -6.825,-3.5 -4.4625,0 -6.9125,3.5 -2.45,3.4125 -2.45,9.45 0,6.0375 2.45,9.625 2.45,3.5 6.9125,3.5 4.4625,0 6.825,-3.5 2.45,-3.5875 2.45,-9.625 z"
         style="font-style:normal;font-variant:normal;font-weight:bold;font-stretch:normal;font-size:87.5px;font-family:Ubuntu;-inkscape-font-specification:'Ubuntu Bold';letter-spacing:13px;fill:url(#linearGradient8249);fill-opacity:1;stroke:none;stroke-width:0.1;stroke-miterlimit:4;stroke-dasharray:none;stroke-opacity:1"
         id="path4396"
         inkscape:connector-curvature="0" />
    </g>
  </g>
  <g
     inkscape:groupmode="layer"
     id="layer5"
     inkscape:label="Layer 1 copy 1"
     style="display:inline"
     transform="translate(-74.790745,-57.596772)" />
  <g
     inkscape:groupmode="layer"
     id="layer6"
     inkscape:label="Layer 1 copy 2"
     style="display:inline"
     transform="translate(-74.790745,-57.596772)" />
  <g
     inkscape:groupmode="layer"
     id="layer2"
     inkscape:label="Layer 2"
     style="display:inline"
     transform="translate(-74.790745,-57.596772)">
    <path
       style="fill:none;fill-rule:evenodd;stroke:#000000;stroke-width:10;stroke-linecap:butt;stroke-linejoin:miter;stroke-miterlimit:4;stroke-dasharray:none;stroke-opacity:1"
       d="M 321.32783,131.44564 321.17469,96.454519"
       id="path4320"
       inkscape:connector-type="polyline"
       inkscape:connector-curvature="0" />
    <path
       style="fill:none;fill-rule:evenodd;stroke:#000000;stroke-width:10;stroke-linecap:butt;stroke-linejoin:miter;stroke-miterlimit:4;stroke-dasharray:none;stroke-opacity:1"
       d="M 326.06939,94.944972 338.66831,106.1122"
       id="path4322"
       inkscape:connector-type="polyline"
       inkscape:connector-curvature="0" />
    <path
       style="fill:none;fill-rule:evenodd;stroke:#000000;stroke-width:10;stroke-linecap:butt;stroke-linejoin:miter;stroke-miterlimit:4;stroke-dasharray:none;stroke-opacity:1"
       d="m 359.29467,131.33611 1.49407,-35.484456"
       id="path4324"
       inkscape:connector-type="polyline"
       inkscape:connector-curvature="0" />
    <path
       style="display:inline;fill:none;fill-rule:evenodd;stroke:#000000;stroke-width:10;stroke-linecap:butt;stroke-linejoin:miter;stroke-miterlimit:4;stroke-dasharray:none;stroke-opacity:1"
       d="m 392.69662,132.11815 0.50545,-13.14181"
       id="path4326"
       inkscape:connector-type="polyline"
       inkscape:connector-curvature="0"
       inkscape:connection-end="#path3344-84-6"
       inkscape:connection-start="#path3344-86" />
    <path
       style="fill:none;fill-rule:evenodd;stroke:#000000;stroke-width:10;stroke-linecap:butt;stroke-linejoin:miter;stroke-miterlimit:4;stroke-dasharray:none;stroke-opacity:1"
       d="m 414.67746,113.57289 -14.66693,-0.80002"
       id="path4328"
       inkscape:connector-type="polyline"
       inkscape:connector-curvature="0"
       inkscape:connection-start="#path3344-9"
       inkscape:connection-end="#path3344-84-6" />
    <path
       style="display:inline;fill:none;fill-rule:evenodd;stroke:#82caff;stroke-width:10;stroke-linecap:butt;stroke-linejoin:miter;stroke-miterlimit:4;stroke-dasharray:none;stroke-opacity:1"
       d="m 346.70868,115.50265 9.44062,16.74948"
       id="path4332"
       inkscape:connector-type="polyline"
       inkscape:connector-curvature="0" />
    <path
       style="fill:none;fill-rule:evenodd;stroke:#82caff;stroke-width:10;stroke-linecap:butt;stroke-linejoin:miter;stroke-miterlimit:4;stroke-dasharray:none;stroke-opacity:1"
       d="m 365.58945,137.91327 20.29161,0.57876"
       id="path4334"
       inkscape:connector-type="polyline"
       inkscape:connector-curvature="0"
       inkscape:connection-start="#path3344-8"
       inkscape:connection-end="#path3344-86" />
    <path
       style="fill:none;fill-rule:evenodd;stroke:#82caff;stroke-width:10;stroke-linecap:butt;stroke-linejoin:miter;stroke-miterlimit:4;stroke-dasharray:none;stroke-opacity:1"
       d="m 399.00927,138.5716 17.67964,-0.28983"
       id="path4336"
       inkscape:connector-type="polyline"
       inkscape:connector-curvature="0"
       inkscape:connection-start="#path3344-86"
       inkscape:connection-end="#path3344-0" />
    <path
       style="fill:none;fill-rule:evenodd;stroke:#e9b631;stroke-width:10;stroke-linecap:butt;stroke-linejoin:miter;stroke-miterlimit:4;stroke-dasharray:none;stroke-opacity:1"
       d="m 398.47604,90.080298 13.69535,-1.292016"
       id="path4338"
       inkscape:connector-type="polyline"
       inkscape:connector-curvature="0"
       inkscape:connection-start="#path3344-84-7"
       inkscape:connection-end="#path3344-84-0" />
    <path
       style="fill:none;fill-rule:evenodd;stroke:#e9b631;stroke-width:10;stroke-linecap:butt;stroke-linejoin:miter;stroke-miterlimit:4;stroke-dasharray:none;stroke-opacity:1"
       d="m 392.39616,97.246945 0.60128,8.618355"
       id="path4340"
       inkscape:connector-type="polyline"
       inkscape:connector-curvature="0"
       inkscape:connection-start="#path3344-84-7"
       inkscape:connection-end="#path3344-84-6" />
    <path
       style="fill:none;fill-rule:evenodd;stroke:#000000;stroke-width:1px;stroke-linecap:butt;stroke-linejoin:miter;stroke-opacity:1"
       d="m 373.17015,48.270574 0,0"
       id="path4342"
       inkscape:connector-type="polyline"
       inkscape:connector-curvature="0" />
  </g>
  <g
     inkscape:groupmode="layer"
     id="layer4"
     inkscape:label="Layer 4"
     style="display:none"
     transform="translate(-74.790745,-57.596772)">
    <path
       style="color:#000000;font-style:normal;font-variant:normal;font-weight:normal;font-stretch:normal;font-size:medium;line-height:normal;font-family:sans-serif;text-indent:0;text-align:start;text-decoration:none;text-decoration-line:none;text-decoration-style:solid;text-decoration-color:#000000;letter-spacing:normal;word-spacing:normal;text-transform:none;direction:ltr;block-progression:tb;writing-mode:lr-tb;baseline-shift:baseline;text-anchor:start;white-space:normal;clip-rule:nonzero;display:inline;overflow:visible;visibility:visible;opacity:1;isolation:auto;mix-blend-mode:normal;color-interpolation:sRGB;color-interpolation-filters:linearRGB;solid-color:#000000;solid-opacity:1;fill:#e9b631;fill-opacity:1;fill-rule:evenodd;stroke:#e9b631;stroke-width:1;stroke-linecap:round;stroke-linejoin:round;stroke-miterlimit:4;stroke-dasharray:none;stroke-dashoffset:0;stroke-opacity:1;color-rendering:auto;image-rendering:auto;shape-rendering:auto;text-rendering:auto;enable-background:accumulate"
       d="m 107.23828,79.111328 a 1.90019,1.90019 0 0 0 -0.0352,0.002 l -11.429686,0.712891 a 1.9002231,1.9002231 0 1 0 0.238281,3.792969 l 10.716795,-0.669922 5.60156,4.310547 a 1.90019,1.90019 0 0 0 1.78321,0.289062 l 12.43359,-4.328125 13.08203,5.435547 a 1.90019,1.90019 0 0 0 2.05274,-0.392578 l 4.99805,-4.865234 11.15039,1.035156 a 1.90019,1.90019 0 1 0 0.35156,-3.783203 l -12.0234,-1.117235 a 1.90019,1.90019 0 0 0 -1.5,0.529297 l -4.72851,4.603516 -12.59375,-5.232422 a 1.90019,1.90019 0 0 0 -1.35352,-0.04102 l -12.14844,4.230469 -5.35351,-4.119141 a 1.90019,1.90019 0 0 0 -1.24219,-0.392578 z"
       id="path4361"
       inkscape:connector-curvature="0" />
    <path
       style="color:#000000;font-style:normal;font-variant:normal;font-weight:normal;font-stretch:normal;font-size:medium;line-height:normal;font-family:sans-serif;text-indent:0;text-align:start;text-decoration:none;text-decoration-line:none;text-decoration-style:solid;text-decoration-color:#000000;letter-spacing:normal;word-spacing:normal;text-transform:none;direction:ltr;block-progression:tb;writing-mode:lr-tb;baseline-shift:baseline;text-anchor:start;white-space:normal;clip-rule:nonzero;display:inline;overflow:visible;visibility:visible;opacity:1;isolation:auto;mix-blend-mode:normal;color-interpolation:sRGB;color-interpolation-filters:linearRGB;solid-color:#000000;solid-opacity:1;fill:#82caff;fill-opacity:1;fill-rule:evenodd;stroke:#82caff;stroke-width:1;stroke-linecap:round;stroke-linejoin:round;stroke-miterlimit:4;stroke-dasharray:none;stroke-dashoffset:0;stroke-opacity:1;color-rendering:auto;image-rendering:auto;shape-rendering:auto;text-rendering:auto;enable-background:accumulate"
       d="m 123.46094,90.224609 c -0.42682,-0.0035 -0.84237,0.1369 -1.17969,0.398438 l -8.28711,6.425781 -17.199218,3.205082 c -2.582824,0.39849 -1.857852,4.29216 0.695312,3.73437 l 17.652346,-3.28711 c 0.29749,-0.0556 0.57739,-0.18152 0.8164,-0.36719 l 7.54688,-5.851558 8.13672,5.673828 c 0.90654,0.63093 2.15814,0.35868 2.7207,-0.5918 l 2.0918,-3.531247 6.25976,2.179687 c 0.0647,0.0231 0.1305,0.0426 0.19727,0.0586 l 8.44531,1.95117 c 0.0632,0.0143 0.12708,0.0254 0.19141,0.0332 l 5.79708,2.97275 c 2.56616,0.38571 3.05628,-3.50711 0.4746,-3.76953 l -5.70137,-2.961029 -8.25,-1.90625 -7.63086,-2.658203 c -0.85388,-0.297319 -1.799,0.04822 -2.25976,0.826162 l -1.8418,3.107422 -7.60547,-5.300782 c -0.31416,-0.219216 -0.68724,-0.338358 -1.07031,-0.341791 z"
       id="path4363"
       inkscape:connector-curvature="0"
       sodipodi:nodetypes="cccccccccccccccccccccccc" />
  </g>
  <g
     inkscape:groupmode="layer"
     id="layer7"
     inkscape:label="Layer 5"
     style="display:inline"
     transform="translate(-74.790745,-57.596772)">
    <path
       style="fill:none;fill-opacity:1;fill-rule:evenodd;stroke:#82caff;stroke-width:4;stroke-linecap:round;stroke-linejoin:round;stroke-miterlimit:4;stroke-dasharray:none;stroke-opacity:1"
       d="m 95.416586,94.863857 11.523764,-0.594342 9.32301,-1.63517 5.48032,48.065185 5.53119,3.10813 4.82288,-51.090379 10.71909,1.785719 12.15596,-0.224989"
       id="path8386"
       inkscape:connector-curvature="0"
       sodipodi:nodetypes="cccccccc" />
  </g>
  <g
     style="display:none"
     inkscape:label="Layer 5 copy"
     id="g8511"
     inkscape:groupmode="layer"
     transform="translate(-74.790745,-57.596772)">
    <path
       style="color:#000000;font-style:normal;font-variant:normal;font-weight:normal;font-stretch:normal;font-size:medium;line-height:normal;font-family:sans-serif;text-indent:0;text-align:start;text-decoration:none;text-decoration-line:none;text-decoration-style:solid;text-decoration-color:#000000;letter-spacing:normal;word-spacing:normal;text-transform:none;direction:ltr;block-progression:tb;writing-mode:lr-tb;baseline-shift:baseline;text-anchor:start;white-space:normal;clip-rule:nonzero;display:inline;overflow:visible;visibility:visible;opacity:1;isolation:auto;mix-blend-mode:normal;color-interpolation:sRGB;color-interpolation-filters:linearRGB;solid-color:#000000;solid-opacity:1;fill:#0072c6;fill-opacity:1;fill-rule:evenodd;stroke:#82caff;stroke-width:2;stroke-linecap:round;stroke-linejoin:miter;stroke-miterlimit:4;stroke-dasharray:none;stroke-dashoffset:0;stroke-opacity:1;color-rendering:auto;image-rendering:auto;shape-rendering:auto;text-rendering:auto;enable-background:accumulate"
       d="m 116.17773,90.636719 a 2.0002,2.0002 0 0 0 -0.25976,0.02734 l -9.20313,1.615235 -11.400387,0.587891 a 2.0002,2.0002 0 1 0 0.205078,3.99414 l 11.523439,-0.59375 a 2.0002,2.0002 0 0 0 0.24219,-0.02734 l 7.23046,-1.269531 5.24024,45.955076 a 2.0002,2.0002 0 0 0 1.00781,1.51758 l 5.53125,3.10742 a 2.0002,2.0002 0 0 0 2.9707,-1.55469 l 4.62305,-48.95312 8.59961,1.433593 a 2.0002,2.0002 0 0 0 0.36524,0.02539 l 12.15625,-0.224609 a 2.0002,2.0002 0 1 0 -0.0742,-3.998047 L 142.96484,92.5 132.42578,90.744141 a 2.0002,2.0002 0 0 0 -2.31836,1.785156 l -4.53515,48.027343 -1.95704,-1.09961 L 118.25,92.408203 a 2.0002,2.0002 0 0 0 -2.07227,-1.771484 z"
       id="path8513"
       inkscape:connector-curvature="0" />
  </g>
  <g
     style="display:inline"
     inkscape:label="Layer 6 copy"
     id="g8525"
     inkscape:groupmode="layer"
     transform="translate(-74.790745,-57.596772)">
    <path
       sodipodi:nodetypes="ccccc"
       inkscape:connector-curvature="0"
       id="path8527"
       d="m 94.535035,80.017252 11.795585,-2.703954 18.93787,8.12423 19.16008,-8.12423 11.3871,4.565493"
       style="fill:none;fill-rule:evenodd;stroke:#e9b631;stroke-width:4;stroke-linecap:round;stroke-linejoin:round;stroke-miterlimit:4;stroke-dasharray:none;stroke-opacity:1" />
  </g>
  <g
     inkscape:groupmode="layer"
     id="layer8"
     inkscape:label="Layer 6"
     style="display:none"
     transform="translate(-74.790745,-57.596772)">
    <path
       style="color:#000000;font-style:normal;font-variant:normal;font-weight:normal;font-stretch:normal;font-size:medium;line-height:normal;font-family:sans-serif;text-indent:0;text-align:start;text-decoration:none;text-decoration-line:none;text-decoration-style:solid;text-decoration-color:#000000;letter-spacing:normal;word-spacing:normal;text-transform:none;direction:ltr;block-progression:tb;writing-mode:lr-tb;baseline-shift:baseline;text-anchor:start;white-space:normal;clip-rule:nonzero;display:inline;overflow:visible;visibility:visible;opacity:1;isolation:auto;mix-blend-mode:normal;color-interpolation:sRGB;color-interpolation-filters:linearRGB;solid-color:#000000;solid-opacity:1;fill:#af8011;fill-opacity:1;fill-rule:evenodd;stroke:#e9b631;stroke-width:2;stroke-linecap:round;stroke-linejoin:round;stroke-miterlimit:4;stroke-dasharray:none;stroke-dashoffset:0;stroke-opacity:1;color-rendering:auto;image-rendering:auto;shape-rendering:auto;text-rendering:auto;enable-background:accumulate"
       d="m 106.3418,75.3125 a 2.0002,2.0002 0 0 0 -0.45899,0.05078 l -11.794919,2.705078 a 2.0002,2.0002 0 1 0 0.894531,3.898438 l 11.160158,-2.558594 18.33789,7.867188 a 2.0002,2.0002 0 0 0 1.56836,0.0039 l 18.40039,-7.802735 10.62305,4.257813 a 2.0002,2.0002 0 1 0 1.48828,-3.712891 l -11.38867,-4.564453 a 2.0002,2.0002 0 0 0 -1.52344,0.01563 l -18.375,7.791016 -18.1543,-7.789063 A 2.0002,2.0002 0 0 0 106.3418,75.3125 Z"
       id="path8392"
       inkscape:connector-curvature="0" />
  </g>
  <g
     inkscape:groupmode="layer"
     id="layer3"
     inkscape:label="Layer 3"
     transform="translate(-74.790745,-57.596772)">
    <circle
       style="display:inline;opacity:1;fill:#d8eeff;fill-opacity:1;fill-rule:nonzero;stroke:#54b6ff;stroke-width:2.9000001;stroke-linecap:butt;stroke-linejoin:miter;stroke-miterlimit:4;stroke-dasharray:none;stroke-dashoffset:0;stroke-opacity:1"
       id="path3344-9"
       cx="421.23358"
       cy="113.9305"
       r="6.5659914" />
    <circle
       style="display:inline;opacity:1;fill:#d8eeff;fill-opacity:1;fill-rule:nonzero;stroke:#54b6ff;stroke-width:2.9000001;stroke-linecap:butt;stroke-linejoin:miter;stroke-miterlimit:4;stroke-dasharray:none;stroke-dashoffset:0;stroke-opacity:1"
       id="path3344-86"
       cx="392.44427"
       cy="138.67923"
       r="6.5659914" />
    <circle
       style="display:inline;opacity:1;fill:#d8eeff;fill-opacity:1;fill-rule:nonzero;stroke:#54b6ff;stroke-width:2.9000001;stroke-linecap:butt;stroke-linejoin:miter;stroke-miterlimit:4;stroke-dasharray:none;stroke-dashoffset:0;stroke-opacity:1"
       id="path3344-0"
       cx="423.25391"
       cy="138.17415"
       r="6.5659914" />
    <circle
       style="display:inline;opacity:1;fill:#f4da95;fill-opacity:1;fill-rule:nonzero;stroke:#d4a017;stroke-width:2.9000001;stroke-linecap:butt;stroke-linejoin:miter;stroke-miterlimit:4;stroke-dasharray:none;stroke-dashoffset:0;stroke-opacity:1"
       id="path3344-84-7"
       cx="391.93918"
       cy="90.696983"
       r="6.5659914" />
    <circle
       style="display:inline;opacity:1;fill:#f4da95;fill-opacity:1;fill-rule:nonzero;stroke:#d4a017;stroke-width:2.9000001;stroke-linecap:butt;stroke-linejoin:miter;stroke-miterlimit:4;stroke-dasharray:none;stroke-dashoffset:0;stroke-opacity:1"
       id="path3344-84-0"
       cx="418.70825"
       cy="88.1716"
       r="6.5659914" />
    <circle
       style="display:inline;opacity:1;fill:#f4da95;fill-opacity:1;fill-rule:nonzero;stroke:#d4a017;stroke-width:2.9000001;stroke-linecap:butt;stroke-linejoin:miter;stroke-miterlimit:4;stroke-dasharray:none;stroke-dashoffset:0;stroke-opacity:1"
       id="path3344-84-6"
       cx="393.45441"
       cy="112.41526"
       r="6.5659914" />
    <circle
       style="display:inline;opacity:1;fill:#d8eeff;fill-opacity:1;fill-rule:nonzero;stroke:#54b6ff;stroke-width:2.9000001;stroke-linecap:butt;stroke-linejoin:miter;stroke-miterlimit:4;stroke-dasharray:none;stroke-dashoffset:0;stroke-opacity:1"
       id="path3344"
       cx="321.35516"
       cy="137.69069"
       r="6.5659914" />
    <circle
       style="display:inline;opacity:1;fill:#d8eeff;fill-opacity:1;fill-rule:nonzero;stroke:#54b6ff;stroke-width:2.9000001;stroke-linecap:butt;stroke-linejoin:miter;stroke-miterlimit:4;stroke-dasharray:none;stroke-dashoffset:0;stroke-opacity:1"
       id="path3344-8"
       cx="359.02802"
       cy="137.66908"
       r="6.5659914" />
    <circle
       style="display:inline;opacity:1;fill:#d8eeff;fill-opacity:1;fill-rule:nonzero;stroke:#54b6ff;stroke-width:2.9000001;stroke-linecap:butt;stroke-linejoin:miter;stroke-miterlimit:4;stroke-dasharray:none;stroke-dashoffset:0;stroke-opacity:1"
       id="path3344-88"
       cx="343.37064"
       cy="109.88988"
       r="6.5659914" />
    <circle
       style="display:inline;opacity:1;fill:#f4da95;fill-opacity:1;fill-rule:nonzero;stroke:#d4a017;stroke-width:2.9000001;stroke-linecap:butt;stroke-linejoin:miter;stroke-miterlimit:4;stroke-dasharray:none;stroke-dashoffset:0;stroke-opacity:1"
       id="path3344-84"
       cx="321.14728"
       cy="90.191902"
       r="6.5659914" />
    <circle
       style="display:inline;opacity:1;fill:#f4da95;fill-opacity:1;fill-rule:nonzero;stroke:#d4a017;stroke-width:2.9000001;stroke-linecap:butt;stroke-linejoin:miter;stroke-miterlimit:4;stroke-dasharray:none;stroke-dashoffset:0;stroke-opacity:1"
       id="path3344-84-8"
       cx="361.04831"
       cy="89.686829"
       r="6.5659914" />
  </g>
</svg>
